^F:\ПП\LAB5\CONSOLEAPPLICATION1\DEBUG\CONSOLEAPPLICATION1.OBJ|F:\ПП\LAB5\CONSOLEAPPLICATION1\DEBUG\STDAFX.OBJ
F:\ПП\LAB5\CONSOLEAPPLICATION1\DEBUG\CONSOLEAPPLICATION1.ILK
F:\ПП\LAB5\CONSOLEAPPLICATION1\DEBUG\CONSOLEAPPLICATION1.EXE
F:\ПП\LAB5\CONSOLEAPPLICATION1\DEBUG\CONSOLEAPPLICATION1.PDB
